MPDW P56
…
library(MASS)

Warning: package 'MASS' was built under R version 4.4.3

library(readxl)

Warning: package 'readxl' was built under R version 4.4.3

Import Data

data <- read_excel("C:/Users/USER/OneDrive/Documents/Semester 5/MPDW/Indah (2).xlsx")
data

# A tibble: 250 × 2
   date                temp_mean
   <dttm>                  <dbl>
 1 2023-08-08 00:00:00      26.8
 2 2023-08-09 00:00:00      26.7
 3 2023-08-10 00:00:00      26.4
 4 2023-08-11 00:00:00      26.7
 5 2023-08-12 00:00:00      26.5
 6 2023-08-13 00:00:00      26.4
 7 2023-08-14 00:00:00      27  
 8 2023-08-15 00:00:00      27.1
 9 2023-08-16 00:00:00      27.3
10 2023-08-17 00:00:00      27.2
# ℹ 240 more rows
…
